{
    "version": "0.0.6",
    "debugLevel": "0",
    "showListStyle": "simple",
    "folderToScan": "C:\\Users\\alex\\Downloads\\",
    "pathFfmpeg": "C:\\Daten\\Tools\\ffmpeg\\bin\\ffmpeg.exe",
    "pathFfprobe": "C:\\Daten\\Tools\\ffmpeg\\bin\\ffprobe.exe",
    "pathVlc": "C:\\Program Files\\VideoLAN\\VLC\\vlc.exe",
    "optionsVlc": "",
    "thumbailCacheDir": "C:\\Daten\\tmp\\cache\\",
    "sdlConfig": {
        "offsetHeader": 70,
        "windowOpacity": 0.9,
        "screenHeight": 300,
	    "screenWidth": 300
    }
}